Machine Learning Project 2024
…
Categorical values

All together there are 6 categorical features + a Date column. In order to make the information about the date more useful, we decided to extract the year, the month and the day from the date into three separate columns.

This is done here below:

weatherAusNew <- weatherAus %>% mutate(
  Year = year(Date),
  Month = month(Date),
  Day = day(Date)
) %>% select(-Date)
as_tibble(weatherAusNew)

# A tibble: 145,460 × 25
   Location MinTemp MaxTemp Rainfall Evaporation Sunshine WindGustDir
   <chr>      <dbl>   <dbl>    <dbl>       <dbl>    <dbl> <chr>      
 1 Albury      13.4    22.9      0.6          NA       NA W          
 2 Albury       7.4    25.1      0            NA       NA WNW        
 3 Albury      12.9    25.7      0            NA       NA WSW        
 4 Albury       9.2    28        0            NA       NA NE         
 5 Albury      17.5    32.3      1            NA       NA W          
 6 Albury      14.6    29.7      0.2          NA       NA WNW        
 7 Albury      14.3    25        0            NA       NA W          
 8 Albury       7.7    26.7      0            NA       NA W          
 9 Albury       9.7    31.9      0            NA       NA NNW        
10 Albury      13.1    30.1      1.4          NA       NA W          
# ℹ 145,450 more rows
# ℹ 18 more variables: WindGustSpeed <int>, WindDir9am <chr>, WindDir3pm <chr>,
#   WindSpeed9am <int>, WindSpeed3pm <int>, Humidity9am <int>,
#   Humidity3pm <int>, Pressure9am <dbl>, Pressure3pm <dbl>, Cloud9am <int>,
#   Cloud3pm <int>, Temp9am <dbl>, Temp3pm <dbl>, RainToday <chr>,
#   RainTomorrow <chr>, Year <dbl>, Month <dbl>, Day <int>
…
